{
	"info": {
		"_postman_id": "300c4575-bf5d-4df7-9697-492db83b843b",
		"name": "ALURA-BITCOIN",
		"schema": "https://schema.getpostman.com/json/collection/v2.1.0/collection.json",
		"_exporter_id": "8976183"
	},
	"item": [
		{
			"name": "bitcoins",
			"item": [
				{
					"name": "getBitcoinsUrl",
					"request": {
						"method": "GET",
						"header": [],
						"url": {
							"raw": "http://localhost:3000/bitcoins",
							"protocol": "http",
							"host": [
								"localhost"
							],
							"port": "3000",
							"path": [
								"bitcoins"
							]
						}
					},
					"response": []
				},
				{
					"name": "getBitcoinsAPI",
					"request": {
						"method": "GET",
						"header": [],
						"url": {
							"raw": "http://localhost:8080/bitcoins",
							"protocol": "http",
							"host": [
								"localhost"
							],
							"port": "8080",
							"path": [
								"bitcoins"
							]
						}
					},
					"response": []
				}
			]
		},
		{
			"name": "usuarios",
			"item": [
				{
					"name": "createUser",
					"request": {
						"method": "POST",
						"header": [],
						"body": {
							"mode": "raw",
							"raw": "{\r\n    \"nome\": \"Joao\",\r\n    \"cpf\": \"746.746.999-01\",\r\n    \"username\": \"joao\",\r\n    \"password\": \"123456\"\r\n}",
							"options": {
								"raw": {
									"language": "json"
								}
							}
						},
						"url": {
							"raw": "http://localhost:8080/usuarios",
							"protocol": "http",
							"host": [
								"localhost"
							],
							"port": "8080",
							"path": [
								"usuarios"
							]
						}
					},
					"response": []
				},
				{
					"name": "getListOfUsers",
					"request": {
						"auth": {
							"type": "basic",
							"basic": [
								{
									"key": "username",
									"value": "alura",
									"type": "string"
								},
								{
									"key": "password",
									"value": "123456",
									"type": "string"
								}
							]
						},
						"method": "GET",
						"header": [],
						"url": {
							"raw": "http://localhost:8080/usuarios",
							"protocol": "http",
							"host": [
								"localhost"
							],
							"port": "8080",
							"path": [
								"usuarios"
							]
						}
					},
					"response": []
				}
			]
		},
		{
			"name": "ordens",
			"item": [
				{
					"name": "createOrder",
					"request": {
						"auth": {
							"type": "basic",
							"basic": [
								{
									"key": "username",
									"value": "joao",
									"type": "string"
								},
								{
									"key": "password",
									"value": "123456",
									"type": "string"
								}
							]
						},
						"method": "POST",
						"header": [],
						"body": {
							"mode": "raw",
							"raw": "{\r\n    \"preco\": 30.75,\r\n    \"tipo\": \"COMPRA\",\r\n    \"userId\": 2\r\n}",
							"options": {
								"raw": {
									"language": "json"
								}
							}
						},
						"url": {
							"raw": "http://localhost:8080/ordens",
							"protocol": "http",
							"host": [
								"localhost"
							],
							"port": "8080",
							"path": [
								"ordens"
							]
						}
					},
					"response": []
				},
				{
					"name": "getListOfOrders",
					"request": {
						"auth": {
							"type": "basic",
							"basic": [
								{
									"key": "username",
									"value": "alura",
									"type": "string"
								},
								{
									"key": "password",
									"value": "123456",
									"type": "string"
								}
							]
						},
						"method": "GET",
						"header": [],
						"url": {
							"raw": "http://localhost:8080/ordens",
							"protocol": "http",
							"host": [
								"localhost"
							],
							"port": "8080",
							"path": [
								"ordens"
							]
						}
					},
					"response": []
				}
			]
		}
	]
}