{
  "bitcoins": [
    { "id": 1, "preco": 58.55, "tipo": "VENDA", "data": "2020-09-15" },
    { "id": 2, "preco": 85.99, "tipo": "VENDA", "data": "2020-09-15" },
    { "id": 3, "preco": 64.75, "tipo": "COMPRA", "data": "2020-09-16" },
    { "id": 4, "preco": 25.50, "tipo": "COMPRA", "data": "2020-09-16" }
  ]
}